CH  8 ][ Elapsed: 15 mins ][ 2014-12-16 00:07

 BSSID              PWR  Beacons    #Data, #/s  CH  MB   ENC  CIPHER AUTH ESSID

 9C:D2:4B:4A:32:F6  -56      789        0    0   6  54e. WPA  CCMP   PSK  CYTA4A32F6
 14:60:80:6B:6A:F1  -56     1062       29    0   7  54e  WPA2 CCMP   PSK  Theodoros
 00:24:17:33:4D:0F  -53      756       53    0   1  54   WPA  TKIP   PSK  CYTA792A58
 00:15:AA:16:BB:17  -61     1466      768    0   2  54 . OPN              (CityCell) 25100999
 00:0C:42:61:15:A4  -60      152        0    0  10  54   OPN              [[[[[   CityCell   ]]]]]
 00:14:7F:30:36:7D  -61     1019      107    0  11  54e  WPA  TKIP   PSK  CYTA63A5B1
 94:FB:B2:3D:8A:E5  -64     1083       14    0   6  54 . WPA2 CCMP   PSK  PrimeHome-48
 94:FF:B2:3D:8A:E6  -64      470        0    0   6  54   OPN              PrimeTel wifi
 00:1F:9F:8A:C0:25  -63      904       12    0   6  54   WPA  TKIP   PSK  CYTAE12070
 00:03:6F:89:1F:BD  -65      578      437    0   1  54   OPN              PrimeTel wifi
 C8:3A:35:22:CC:A8  -64      422        0    0   9  54e. WPA  CCMP   PSK  Tenda_22CCA8
 00:21:96:39:B9:A8  -66      504        1    0   2  54   WPA2 TKIP   PSK  PrimeHome-92
 00:21:96:39:B9:A9  -65      507      310    0   2  54   OPN              PrimeTel wifi
 00:03:6F:89:1F:BC  -63      600        1    0   1  54   WPA2 TKIP   PSK  PrimeHome-15
 02:15:6D:64:20:96  -68      283        0    0   1  54 . OPN              <length:  0>
 00:DC:11:BA:C4:22  -68      542        6    0   3  54 . OPN              (CityCell) 25100999
 00:15:6D:64:20:96  -68      290      304    0   1  54 . OPN              PrimeTel  wifi
 00:19:BE:1F:C1:D0  -69      189      213    0   1  54e. OPN              PrimeTel  wifi
 00:C1:2A:22:B4:32  -69      277        0    0   5  54 . OPN              @ CityCell WiFi @
 00:0C:42:6C:14:52  -66      876        0    0   9  54   OPN              ((( CityCell WiFi )))
 00:02:6F:A0:54:27  -70      732        3    0   4  54 . OPN              @ CityCell WiFi @
 00:21:96:38:F5:95  -70      477      364    0  11  54   OPN              PrimeTel wifi
 00:21:96:38:F5:94  -71      421      308    0  11  54   WPA2 TKIP   PSK  PrimeHome-01
 9C:D2:4B:49:F9:B2  -72      120        0    0   6  54e. WPA  CCMP   PSK  CYTA49F9B2
 08:60:6E:EA:97:B8  -72       69        4    0   1  54e  WPA2 CCMP   PSK  ASUS
 2C:95:7F:16:E5:7A  -72       28        0    0  11  54e  WPA2 CCMP   PSK  CYTA HOME
 14:60:80:6B:9B:5C  -72        3        0    0   6  54e  WPA2 CCMP   PSK  CYTA6B9B5C
 00:18:F8:4B:44:79  -72      240       13    0  11  54   OPN              Promitheos 12
 CC:7B:35:2A:4B:02  -72        2        0    0  10  54e  WPA2 CCMP   PSK  CYTA2A4B02
 DC:9F:DB:34:55:33  -72        4        0    0  10  54e. OPN              DragonNet27B Tel.25320404
 9C:D2:4B:4A:4B:79  -69       15        0    0   6  54e. WPA  CCMP   PSK  CYTA4A4B79
 00:24:17:7B:83:A3  -67      125        3    0   6  54   WPA  TKIP   PSK  CYTA0EA997
 00:1F:9F:8A:A3:5F   -1        0       82    0   6  -1   WPA              <length:  0>
 06:27:22:CF:67:AA   -1        0        0    0  -1  -1                    <length:  0>
 00:24:17:20:EE:F1  -69        1        0    0   6  54   WPA2 CCMP   PSK  CALLSAT-3129
 24:A4:3C:42:1E:C1  -69      248        1    0   8  54e. OPN              DragonAirNS
 14:60:80:6B:3C:61  -68      150       22    0   6  54e  WPA2 CCMP   PSK  CYTA6B3C61
